28
2	82	-85	8
2	57	-49	45
2	80	-17	-17
2	20	-68	-45
2	68	78	-88
2	3	-72	41
2	-17	92	-9
2	84	-97	22
2	-56	-64	-2
2	87	-83	70
2	-37	6	-4
2	-87	76	-86
2	16	83	-80
2	9	-55	-76
2	1	32	-80
2	-78	-29	43
2	-72	-91	37
2	-63	53	-29
2	45	72	3
2	93	-2	21
2	46	-87	77
2	42	61	43
2	-24	1	-91
2	40	82	35
2	10	28	-48
2	-79	-82	24
2	-51	93	-19
2	93	-70	-24
0	1
32	0	-40	98	-35	2	-42	6	-77	17	-94	28	69	-12	52	72	96	1	-95	63	27	-62	68	-54	-60	27	-16	-84
